…
Un `tibble` est retourné. On peut y voir les tables qui sont disponibles. En ce moment, les tables retournées sont celles contenues dans l'entrepôt de données (_data warehouse_).

Pour en savoir plus sur une table, on peut simplement la fournir en paramètre comme suit :

```r
[ins] r$> ellipse_discover(con, "a-qc-parliament-debates")
INFO [2024-06-11 21:15:34] [tube::list_glue_tables] listing tables from the datawarehouse
# A tibble: 21 × 4
   table_name              col_name                 col_type is_partition
   <chr>                   <chr>                    <chr>    <lgl>
 1 a-qc-parliament-debates event_date               date     TRUE
 2 a-qc-parliament-debates id                       string   FALSE
 3 a-qc-parliament-debates institution_id           string   FALSE
 4 a-qc-parliament-debates event_number             string   FALSE
 5 a-qc-parliament-debates event_title              string   FALSE
 6 a-qc-parliament-debates event_start_time         string   FALSE
 7 a-qc-parliament-debates event_end_time           string   FALSE
 8 a-qc-parliament-debates timestamp                string   FALSE
 9 a-qc-parliament-debates order_of_business_number string   FALSE
10 a-qc-parliament-debates order_of_business_title  string   FALSE
# ℹ 11 more rows
# ℹ Use `print(n = ...)` to see more rows
```
…
[ins] r$> ellipse_partitions(con, "r-media-headlines")
INFO [2024-03-30 10:21:51] [tube::list_glue_tables] listing tables from the datawarehouse
INFO: (Data scanned: 0 Bytes)
INFO: (Data scanned: 0 Bytes)
# A tibble: 128 × 3
   date       media_id       n
   <date>     <chr>    <int64>
 1 2023-10-23 TVA           24
 2 2024-01-28 TVA           59
 3 2024-01-29 RCI            7
 4 2024-01-29 TVA          126
 5 2024-01-30 RCI          143
 6 2024-01-30 TVA          142
 7 2024-01-31 RCI          144
 8 2024-01-31 TVA          148
 9 2024-02-01 RCI          144
10 2024-02-01 TVA          136
# ℹ 118 more rows
# ℹ Use `print(n = ...)` to see more rows

[ins] r$> df <-
            ellipse_query(con, "r-media-headlines") |>
            dplyr::filter(date == as.Date("2024-01-30"), media_id == "RCI") |>
            dplyr::collect()
INFO: (Data scanned: 0 Bytes)
INFO: (Data scanned: 526.42 KB)

[ins] r$> df |>
            dplyr::mutate(
              date_heure = lubridate::as_datetime(extraction_datetime,
              tz = "America/New_York")) |>
            dplyr::distinct(date_heure, title)
Date in ISO8601 format; converting timezone from UTC to "America/New_York".
# A tibble: 143 × 2
   date_heure          title
   <dttm>              <chr>
 1 2024-01-31 02:34:33 Demandeurs d’asile : Ottawa ne répondra pas à toutes les demandes du Québec | Radio-Canada
 2 2024-01-30 18:04:33 Scandale de Hockey Canada :  McLeod et Dubé parmi les cinq joueurs accusés | Radio-Canada
 3 2024-01-30 23:54:33 Demandeurs d’asile : Ottawa ne répondra pas à toutes les demandes du Québec | Radio-Canada
 4 2024-01-31 03:24:34 Demandeurs d’asile : Ottawa ne répondra pas à toutes les demandes du Québec | Radio-Canada
 5 2024-01-30 16:44:34 Le nucléaire devrait faire partie de la solution après 2035, dit Hydro-Québec | Radio-Canada
 6 2024-01-30 15:04:33 Québec annonce 200 millions $ en allocations personnalisées aux RPA | Radio-Canada
 7 2024-01-30 17:54:33 Scandale de Hockey Canada :  McLeod et Dubé parmi les cinq joueurs accusés | Radio-Canada
 8 2024-01-31 00:54:33 Demandeurs d’asile : Ottawa ne répondra pas à toutes les demandes du Québec | Radio-Canada
 9 2024-01-30 19:04:33 Scandale de Hockey Canada : l’identité de 4 des 5 joueurs accusés est confirmée | Radio-Canada
10 2024-01-30 23:34:33 Demandeurs d’asile : Ottawa ne répondra pas à toutes les demandes du Québec | Radio-Canada
# ℹ 133 more rows
# ℹ Use `print(n = ...)` to see more rows
```
…
